{
  "status": 200,
  "message": "Hadiths has been found.",
  "hadiths": {
    "current_page": 1,

    "first_page_url": "https://www.hadithapi.com/api/hadiths?page=1",
    "from": 1,
    "last_page": 1629,
    "last_page_url": "https://www.hadithapi.com/api/hadiths?page=1629",
    "links": [
      { "url": null, "label": "&laquo; Previous", "active": false },
      {
        "url": "https://www.hadithapi.com/api/hadiths?page=1",
        "label": "1",
        "active": true
      },
      {
        "url": "https://www.hadithapi.com/api/hadiths?page=2",
        "label": "2",
        "active": false
      },
      {
        "url": "https://www.hadithapi.com/api/hadiths?page=3",
        "label": "3",
        "active": false
      },
      {
        "url": "https://www.hadithapi.com/api/hadiths?page=4",
        "label": "4",
        "active": false
      },
      {
        "url": "https://www.hadithapi.com/api/hadiths?page=5",
        "label": "5",
        "active": false
      },
      {
        "url": "https://www.hadithapi.com/api/hadiths?page=6",
        "label": "6",
        "active": false
      },
      {
        "url": "https://www.hadithapi.com/api/hadiths?page=7",
        "label": "7",
        "active": false
      },
      {
        "url": "https://www.hadithapi.com/api/hadiths?page=8",
        "label": "8",
        "active": false
      },
      {
        "url": "https://www.hadithapi.com/api/hadiths?page=9",
        "label": "9",
        "active": false
      },
      {
        "url": "https://www.hadithapi.com/api/hadiths?page=10",
        "label": "10",
        "active": false
      },
      { "url": null, "label": "...", "active": false },
      {
        "url": "https://www.hadithapi.com/api/hadiths?page=1628",
        "label": "1628",
        "active": false
      },
      {
        "url": "https://www.hadithapi.com/api/hadiths?page=1629",
        "label": "1629",
        "active": false
      },
      {
        "url": "https://www.hadithapi.com/api/hadiths?page=2",
        "label": "Next &raquo;",
        "active": false
      }
    ],
    "next_page_url": "https://www.hadithapi.com/api/hadiths?page=2",
    "path": "https://www.hadithapi.com/api/hadiths",
    "per_page": 25,
    "prev_page_url": null,
    "to": 25,
    "total": 40719
  }
}
